…
&nbsp;  

**1. Calculating the total number of steps taken per day.**

&nbsp; 


```r
steps_per_day <- activity %>% group_by(date) %>% summarize(steps = sum(steps, na.rm = TRUE))
steps_per_day
```

```
## # A tibble: 61 x 2
##    date       steps
##    <date>     <int>
##  1 2012-10-01     0
##  2 2012-10-02   126
##  3 2012-10-03 11352
##  4 2012-10-04 12116
##  5 2012-10-05 13294
##  6 2012-10-06 15420
##  7 2012-10-07 11015
##  8 2012-10-08     0
##  9 2012-10-09 12811
## 10 2012-10-10  9900
## # ... with 51 more rows
```
…
&nbsp;

If we group by date, we can see that there are exactly 8 dates with missing values in the 'steps' column, and that all of the values in that 'steps' column are missing for those 8 dates:

&nbsp; 


```r
nas_per_date <- activity %>% group_by(date) %>%
        summarise(nas = sum(is.na(steps)), num_of_intervals = n())
nas_per_date
```

```
## # A tibble: 61 x 3
##    date         nas num_of_intervals
##    <date>     <int>            <int>
##  1 2012-10-01   288              288
##  2 2012-10-02     0              288
##  3 2012-10-03     0              288
##  4 2012-10-04     0              288
##  5 2012-10-05     0              288
##  6 2012-10-06     0              288
##  7 2012-10-07     0              288
##  8 2012-10-08   288              288
##  9 2012-10-09     0              288
## 10 2012-10-10     0              288
## # ... with 51 more rows
```
…
&nbsp; 

If we group by interval, we can see that each of them has exactly 8 missing values (corresponding to the 8 dates from the last code chunk).

&nbsp; 


```r
nas_per_interval <- activity %>% group_by(interval) %>%
                    summarise(nas = sum(is.na(steps)), num_of_dates = n())
nas_per_interval
```

```
## # A tibble: 288 x 3
##    interval   nas num_of_dates
##       <int> <int>        <int>
##  1        0     8           61
##  2        5     8           61
##  3       10     8           61
##  4       15     8           61
##  5       20     8           61
##  6       25     8           61
##  7       30     8           61
##  8       35     8           61
##  9       40     8           61
## 10       45     8           61
## # ... with 278 more rows
```
…
```
## 
##   8 
## 288
```

```r
nas_per_interval %>% filter(nas > 0)
```

```
## # A tibble: 288 x 3
##    interval   nas num_of_dates
##       <int> <int>        <int>
##  1        0     8           61
##  2        5     8           61
##  3       10     8           61
##  4       15     8           61
##  5       20     8           61
##  6       25     8           61
##  7       30     8           61
##  8       35     8           61
##  9       40     8           61
## 10       45     8           61
## # ... with 278 more rows
```
…
```r
c1 <- cbind(interval = u, median = sapply(u, median_interval))
c2 <- cbind(interval = u, mean = sapply(u, mean_interval))
```


```r
as_tibble(c1)
```

```
## # A tibble: 288 x 2
##    interval median
##       <int>  <int>
##  1        0      0
##  2        5      0
##  3       10      0
##  4       15      0
##  5       20      0
##  6       25      0
##  7       30      0
##  8       35      0
##  9       40      0
## 10       45      0
## # ... with 278 more rows
```

```r
as_tibble(c2)
```

```
## # A tibble: 288 x 2
##    interval   mean
##       <dbl>  <dbl>
##  1        0 1.72  
##  2        5 0.340 
##  3       10 0.132 
##  4       15 0.151 
##  5       20 0.0755
##  6       25 2.09  
##  7       30 0.528 
##  8       35 0.868 
##  9       40 0     
## 10       45 1.47  
## # ... with 278 more rows
```
…
&nbsp;




```r
activity.3 <- activity.1 %>% mutate(day = as.factor(weekdays(date))) %>%
                             mutate(labor = ifelse(day %in% weekend, "weekend", "weekday")) %>%
                             mutate(labor = as.factor(labor))
as_tibble(activity.3)
```

```
## # A tibble: 17,568 x 5
##    date       interval steps day    labor  
##    <date>        <int> <dbl> <fct>  <fct>  
##  1 2012-10-01        0     0 Monday weekday
##  2 2012-10-01        5     0 Monday weekday
##  3 2012-10-01       10     0 Monday weekday
##  4 2012-10-01       15     0 Monday weekday
##  5 2012-10-01       20     0 Monday weekday
##  6 2012-10-01       25     0 Monday weekday
##  7 2012-10-01       30     0 Monday weekday
##  8 2012-10-01       35     0 Monday weekday
##  9 2012-10-01       40     0 Monday weekday
## 10 2012-10-01       45     0 Monday weekday
## # ... with 17,558 more rows
```
…
